…
## Example

The friends package comes with a couple of datasets. The main one is the
`friends` dataset which is a tibble containing all the utterances in the
show

``` r
library(friends)

friends
#> # A tibble: 67,373 x 6
#>    text                                speaker    season episode scene utterance
#>    <chr>                               <chr>       <dbl>   <dbl> <dbl>     <dbl>
#>  1 There's nothing to tell! He's just… Monica Ge…      1       1     1         1
#>  2 C'mon, you're going out with the g… Joey Trib…      1       1     1         2
#>  3 All right Joey, be nice. So does h… Chandler …      1       1     1         3
#>  4 Wait, does he eat chalk?            Phoebe Bu…      1       1     1         4
#>  5 (They all stare, bemused.)          Scene Dir…      1       1     1         5
#>  6 Just, 'cause, I don't want her to … Phoebe Bu…      1       1     1         6
#>  7 Okay, everybody relax. This is not… Monica Ge…      1       1     1         7
#>  8 Sounds like a date to me.           Chandler …      1       1     1         8
#>  9 [Time Lapse]                        Scene Dir…      1       1     1         9
#> 10 Alright, so I'm back in high schoo… Chandler …      1       1     1        10
#> # … with 67,363 more rows
```

All the utterances are broken down by `season`, `episode`, `scene` and
`utterance` which allows for very detailed analysis. Please note that
the `speaker` will be denoted `"Scene Directions"` to show scene
directions, or otherwise non-spoken descriptions.

The original data includes emotion and character entity annotation for
some of the utterances. These annotations have been included in separate
tibbles. These can easily be joined back to the main dataset as needed.

``` r
friends_entities
#> # A tibble: 10,557 x 5
#>    season episode scene utterance entities 
#>     <dbl>   <dbl> <dbl>     <dbl> <list>   
#>  1      1       1     1         2 <chr [1]>
#>  2      1       1     1         3 <chr [2]>
#>  3      1       1     1         4 <chr [1]>
#>  4      1       1     1         8 <chr [1]>
#>  5      1       1     1        31 <chr [2]>
#>  6      1       1     1        33 <chr [1]>
#>  7      1       1     1        34 <chr [1]>
#>  8      1       1     1        38 <chr [1]>
#>  9      1       1     1        42 <chr [4]>
#> 10      1       1     1        44 <chr [1]>
#> # … with 10,547 more rows

friends_emotions
#> # A tibble: 12,606 x 5
#>    season episode scene utterance emotion
#>     <dbl>   <dbl> <dbl>     <dbl> <chr>  
#>  1      1       1     4         1 Mad    
#>  2      1       1     4         3 Neutral
#>  3      1       1     4         4 Joyful 
#>  4      1       1     4         5 Neutral
#>  5      1       1     4         6 Neutral
#>  6      1       1     4         7 Neutral
#>  7      1       1     4         8 Scared 
#>  8      1       1     4        10 Joyful 
#>  9      1       1     4        11 Joyful 
#> 10      1       1     4        12 Sad    
#> # … with 12,596 more rows
```
